PWD /home/librantara/Documents/INTERNSHIP_DAN_TA/LateX/internship2ta2019/Librantara Erlangga/Internship_2
INPUT /usr/share/texmf-dist/web2c/texmf.cnf
INPUT /var/lib/texmf/web2c/pdftex/pdflatex.fmt
INPUT /home/librantara/Documents/INTERNSHIP_DAN_TA/LateX/internship2ta2019/Librantara Erlangga/Internship_2/main.tex
OUTPUT /home/librantara/Documents/INTERNSHIP_DAN_TA/LateX/internship2ta2019/Librantara Erlangga/Internship_2/main.log
INPUT /home/librantara/Documents/INTERNSHIP_DAN_TA/LateX/internship2ta2019/Librantara Erlangga/Internship_2/ociamthesis.cls
INPUT /home/librantara/Documents/INTERNSHIP_DAN_TA/LateX/internship2ta2019/Librantara Erlangga/Internship_2/ociamthesis.cls
INPUT /usr/share/texmf-dist/tex/latex/base/report.cls
INPUT /usr/share/texmf-dist/tex/latex/base/report.cls
INPUT /usr/share/texmf-dist/tex/latex/base/size12.clo
INPUT /usr/share/texmf-dist/tex/latex/base/size12.clo
INPUT /usr/share/texmf-dist/fonts/map/fontname/texfonts.map
INPUT /usr/share/texmf-dist/fonts/tfm/public/cm/cmr12.tfm
INPUT /usr/share/texmf-dist/tex/latex/graphics/graphicx.sty
INPUT /usr/share/texmf-dist/tex/latex/graphics/graphicx.sty
INPUT /usr/share/texmf-dist/tex/latex/graphics/keyval.sty
INPUT /usr/share/texmf-dist/tex/latex/graphics/keyval.sty
INPUT /usr/share/texmf-dist/tex/latex/graphics/graphics.sty
INPUT /usr/share/texmf-dist/tex/latex/graphics/graphics.sty
INPUT /usr/share/texmf-dist/tex/latex/graphics/trig.sty
INPUT /usr/share/texmf-dist/tex/latex/graphics/trig.sty
INPUT /usr/share/texmf-dist/tex/latex/graphics-cfg/graphics.cfg
INPUT /usr/share/texmf-dist/tex/latex/graphics-cfg/graphics.cfg
INPUT /usr/share/texmf-dist/tex/latex/graphics-def/pdftex.def
INPUT /usr/share/texmf-dist/tex/latex/graphics-def/pdftex.def
INPUT /usr/share/texmf-dist/tex/latex/base/ifthen.sty
INPUT /usr/share/texmf-dist/tex/latex/base/ifthen.sty
INPUT /usr/share/texmf-dist/tex/latex/amsfonts/amssymb.sty
INPUT /usr/share/texmf-dist/tex/latex/amsfonts/amssymb.sty
INPUT /usr/share/texmf-dist/tex/latex/amsfonts/amsfonts.sty
INPUT /usr/share/texmf-dist/tex/latex/amsfonts/amsfonts.sty
INPUT /usr/share/texmf-dist/tex/latex/tools/tabularx.sty
INPUT /usr/share/texmf-dist/tex/latex/tools/tabularx.sty
INPUT /usr/share/texmf-dist/tex/latex/tools/array.sty
INPUT /usr/share/texmf-dist/tex/latex/tools/array.sty
INPUT /usr/share/texmf-dist/tex/latex/adjustbox/adjustbox.sty
INPUT /usr/share/texmf-dist/tex/latex/adjustbox/adjustbox.sty
INPUT /usr/share/texmf-dist/tex/latex/xkeyval/xkeyval.sty
INPUT /usr/share/texmf-dist/tex/latex/xkeyval/xkeyval.sty
INPUT /usr/share/texmf-dist/tex/generic/xkeyval/xkeyval.tex
INPUT /usr/share/texmf-dist/tex/generic/xkeyval/xkvutils.tex
INPUT /usr/share/texmf-dist/tex/latex/adjustbox/adjcalc.sty
INPUT /usr/share/texmf-dist/tex/latex/adjustbox/adjcalc.sty
INPUT /usr/share/texmf-dist/tex/latex/adjustbox/trimclip.sty
INPUT /usr/share/texmf-dist/tex/latex/adjustbox/trimclip.sty
INPUT /usr/share/texmf-dist/tex/latex/collectbox/collectbox.sty
INPUT /usr/share/texmf-dist/tex/latex/collectbox/collectbox.sty
INPUT /usr/share/texmf-dist/tex/latex/adjustbox/tc-pdftex.def
INPUT /usr/share/texmf-dist/tex/latex/adjustbox/tc-pdftex.def
INPUT /usr/share/texmf-dist/tex/latex/ifoddpage/ifoddpage.sty
INPUT /usr/share/texmf-dist/tex/latex/ifoddpage/ifoddpage.sty
INPUT /usr/share/texmf-dist/tex/latex/ifoddpage/ifoddpage.sty
INPUT /usr/share/texmf-dist/tex/latex/varwidth/varwidth.sty
INPUT /usr/share/texmf-dist/tex/latex/varwidth/varwidth.sty
INPUT /usr/share/texmf-dist/tex/latex/varwidth/varwidth.sty
INPUT /home/librantara/Documents/INTERNSHIP_DAN_TA/LateX/internship2ta2019/Librantara Erlangga/Internship_2/main.aux
INPUT /home/librantara/Documents/INTERNSHIP_DAN_TA/LateX/internship2ta2019/Librantara Erlangga/Internship_2/main.aux
INPUT /home/librantara/Documents/INTERNSHIP_DAN_TA/LateX/internship2ta2019/Librantara Erlangga/Internship_2/section/dedication.aux
INPUT /home/librantara/Documents/INTERNSHIP_DAN_TA/LateX/internship2ta2019/Librantara Erlangga/Internship_2/section/dedication.aux
INPUT /home/librantara/Documents/INTERNSHIP_DAN_TA/LateX/internship2ta2019/Librantara Erlangga/Internship_2/section/acknowlegements.aux
INPUT /home/librantara/Documents/INTERNSHIP_DAN_TA/LateX/internship2ta2019/Librantara Erlangga/Internship_2/section/acknowlegements.aux
INPUT /home/librantara/Documents/INTERNSHIP_DAN_TA/LateX/internship2ta2019/Librantara Erlangga/Internship_2/section/abstrak.aux
INPUT /home/librantara/Documents/INTERNSHIP_DAN_TA/LateX/internship2ta2019/Librantara Erlangga/Internship_2/section/abstrak.aux
INPUT /home/librantara/Documents/INTERNSHIP_DAN_TA/LateX/internship2ta2019/Librantara Erlangga/Internship_2/section/abstract.aux
INPUT /home/librantara/Documents/INTERNSHIP_DAN_TA/LateX/internship2ta2019/Librantara Erlangga/Internship_2/section/abstract.aux
INPUT /home/librantara/Documents/INTERNSHIP_DAN_TA/LateX/internship2ta2019/Librantara Erlangga/Internship_2/section/chapter1.aux
INPUT /home/librantara/Documents/INTERNSHIP_DAN_TA/LateX/internship2ta2019/Librantara Erlangga/Internship_2/section/chapter1.aux
INPUT /home/librantara/Documents/INTERNSHIP_DAN_TA/LateX/internship2ta2019/Librantara Erlangga/Internship_2/section/chapter2.aux
INPUT /home/librantara/Documents/INTERNSHIP_DAN_TA/LateX/internship2ta2019/Librantara Erlangga/Internship_2/section/chapter2.aux
INPUT /home/librantara/Documents/INTERNSHIP_DAN_TA/LateX/internship2ta2019/Librantara Erlangga/Internship_2/section/chapter3.aux
INPUT /home/librantara/Documents/INTERNSHIP_DAN_TA/LateX/internship2ta2019/Librantara Erlangga/Internship_2/section/chapter3.aux
INPUT /home/librantara/Documents/INTERNSHIP_DAN_TA/LateX/internship2ta2019/Librantara Erlangga/Internship_2/section/chapter4.aux
INPUT /home/librantara/Documents/INTERNSHIP_DAN_TA/LateX/internship2ta2019/Librantara Erlangga/Internship_2/section/chapter4.aux
INPUT /home/librantara/Documents/INTERNSHIP_DAN_TA/LateX/internship2ta2019/Librantara Erlangga/Internship_2/section/chapter5.aux
INPUT /home/librantara/Documents/INTERNSHIP_DAN_TA/LateX/internship2ta2019/Librantara Erlangga/Internship_2/section/chapter5.aux
INPUT /home/librantara/Documents/INTERNSHIP_DAN_TA/LateX/internship2ta2019/Librantara Erlangga/Internship_2/section/chapter6.aux
INPUT /home/librantara/Documents/INTERNSHIP_DAN_TA/LateX/internship2ta2019/Librantara Erlangga/Internship_2/section/chapter6.aux
INPUT /home/librantara/Documents/INTERNSHIP_DAN_TA/LateX/internship2ta2019/Librantara Erlangga/Internship_2/section/chapter7.aux
INPUT /home/librantara/Documents/INTERNSHIP_DAN_TA/LateX/internship2ta2019/Librantara Erlangga/Internship_2/section/chapter7.aux
OUTPUT /home/librantara/Documents/INTERNSHIP_DAN_TA/LateX/internship2ta2019/Librantara Erlangga/Internship_2/main.aux
INPUT /usr/share/texmf-dist/tex/context/base/mkii/supp-pdf.mkii
INPUT /usr/share/texmf-dist/tex/context/base/mkii/supp-pdf.mkii
INPUT /usr/share/texmf-dist/tex/latex/oberdiek/epstopdf-base.sty
INPUT /usr/share/texmf-dist/tex/latex/oberdiek/epstopdf-base.sty
INPUT /usr/share/texmf-dist/tex/generic/oberdiek/infwarerr.sty
INPUT /usr/share/texmf-dist/tex/generic/oberdiek/infwarerr.sty
INPUT /usr/share/texmf-dist/tex/latex/oberdiek/grfext.sty
INPUT /usr/share/texmf-dist/tex/latex/oberdiek/grfext.sty
INPUT /usr/share/texmf-dist/tex/generic/oberdiek/kvdefinekeys.sty
INPUT /usr/share/texmf-dist/tex/generic/oberdiek/kvdefinekeys.sty
INPUT /usr/share/texmf-dist/tex/generic/oberdiek/ltxcmds.sty
INPUT /usr/share/texmf-dist/tex/generic/oberdiek/ltxcmds.sty
INPUT /usr/share/texmf-dist/tex/latex/oberdiek/kvoptions.sty
INPUT /usr/share/texmf-dist/tex/latex/oberdiek/kvoptions.sty
INPUT /usr/share/texmf-dist/tex/generic/oberdiek/kvsetkeys.sty
INPUT /usr/share/texmf-dist/tex/generic/oberdiek/kvsetkeys.sty
INPUT /usr/share/texmf-dist/tex/generic/oberdiek/etexcmds.sty
INPUT /usr/share/texmf-dist/tex/generic/oberdiek/etexcmds.sty
INPUT /usr/share/texmf-dist/tex/generic/oberdiek/ifluatex.sty
INPUT /usr/share/texmf-dist/tex/generic/oberdiek/ifluatex.sty
INPUT /usr/share/texmf-dist/tex/generic/oberdiek/pdftexcmds.sty
INPUT /usr/share/texmf-dist/tex/generic/oberdiek/pdftexcmds.sty
INPUT /usr/share/texmf-dist/tex/generic/oberdiek/ifpdf.sty
INPUT /usr/share/texmf-dist/tex/generic/oberdiek/ifpdf.sty
INPUT /usr/share/texmf-dist/tex/latex/latexconfig/epstopdf-sys.cfg
INPUT /usr/share/texmf-dist/tex/latex/latexconfig/epstopdf-sys.cfg
INPUT /usr/share/texmf-dist/fonts/tfm/public/cm/cmbx12.tfm
INPUT /usr/share/texmf-dist/fonts/tfm/public/cm/cmbxti10.tfm
INPUT /usr/share/texmf-dist/fonts/tfm/public/cm/cmr12.tfm
INPUT /usr/share/texmf-dist/fonts/tfm/public/cm/cmti12.tfm
INPUT /usr/share/texmf-dist/fonts/tfm/public/cm/cmbxti10.tfm
INPUT /home/librantara/Documents/INTERNSHIP_DAN_TA/LateX/internship2ta2019/Librantara Erlangga/Internship_2/logo-poltekpos.png
INPUT /home/librantara/Documents/INTERNSHIP_DAN_TA/LateX/internship2ta2019/Librantara Erlangga/Internship_2/logo-poltekpos.png
OUTPUT /home/librantara/Documents/INTERNSHIP_DAN_TA/LateX/internship2ta2019/Librantara Erlangga/Internship_2/main.pdf
INPUT /home/librantara/Documents/INTERNSHIP_DAN_TA/LateX/internship2ta2019/Librantara Erlangga/Internship_2/logo-poltekpos.png
INPUT /usr/share/texmf-dist/fonts/tfm/public/cm/cmr17.tfm
INPUT /usr/share/texmf-dist/fonts/tfm/public/cm/cmti12.tfm
INPUT /var/lib/texmf/fonts/map/pdftex/updmap/pdftex.map
OUTPUT /home/librantara/Documents/INTERNSHIP_DAN_TA/LateX/internship2ta2019/Librantara Erlangga/Internship_2/section/dedication.aux
INPUT /home/librantara/Documents/INTERNSHIP_DAN_TA/LateX/internship2ta2019/Librantara Erlangga/Internship_2/section/dedication.tex
INPUT /home/librantara/Documents/INTERNSHIP_DAN_TA/LateX/internship2ta2019/Librantara Erlangga/Internship_2/section/dedication.tex
INPUT /usr/share/texmf-dist/fonts/tfm/public/cm/cmr17.tfm
OUTPUT /home/librantara/Documents/INTERNSHIP_DAN_TA/LateX/internship2ta2019/Librantara Erlangga/Internship_2/section/acknowlegements.aux
INPUT /home/librantara/Documents/INTERNSHIP_DAN_TA/LateX/internship2ta2019/Librantara Erlangga/Internship_2/section/acknowlegements.tex
INPUT /home/librantara/Documents/INTERNSHIP_DAN_TA/LateX/internship2ta2019/Librantara Erlangga/Internship_2/section/acknowlegements.tex
INPUT /usr/share/texmf-dist/fonts/tfm/public/cm/cmbx12.tfm
OUTPUT /home/librantara/Documents/INTERNSHIP_DAN_TA/LateX/internship2ta2019/Librantara Erlangga/Internship_2/section/abstrak.aux
INPUT /home/librantara/Documents/INTERNSHIP_DAN_TA/LateX/internship2ta2019/Librantara Erlangga/Internship_2/section/abstrak.tex
INPUT /home/librantara/Documents/INTERNSHIP_DAN_TA/LateX/internship2ta2019/Librantara Erlangga/Internship_2/section/abstrak.tex
OUTPUT /home/librantara/Documents/INTERNSHIP_DAN_TA/LateX/internship2ta2019/Librantara Erlangga/Internship_2/section/abstract.aux
INPUT /home/librantara/Documents/INTERNSHIP_DAN_TA/LateX/internship2ta2019/Librantara Erlangga/Internship_2/section/abstract.tex
INPUT /home/librantara/Documents/INTERNSHIP_DAN_TA/LateX/internship2ta2019/Librantara Erlangga/Internship_2/section/abstract.tex
INPUT /usr/share/texmf-dist/fonts/tfm/public/cm/cmr17.tfm
INPUT /usr/share/texmf-dist/fonts/tfm/public/cm/cmbx12.tfm
INPUT /home/librantara/Documents/INTERNSHIP_DAN_TA/LateX/internship2ta2019/Librantara Erlangga/Internship_2/main.toc
INPUT /home/librantara/Documents/INTERNSHIP_DAN_TA/LateX/internship2ta2019/Librantara Erlangga/Internship_2/main.toc
INPUT /usr/share/texmf-dist/fonts/tfm/public/cm/cmr8.tfm
INPUT /usr/share/texmf-dist/fonts/tfm/public/cm/cmr6.tfm
INPUT /usr/share/texmf-dist/fonts/tfm/public/cm/cmmi12.tfm
INPUT /usr/share/texmf-dist/fonts/tfm/public/cm/cmmi8.tfm
INPUT /usr/share/texmf-dist/fonts/tfm/public/cm/cmmi6.tfm
INPUT /usr/share/texmf-dist/fonts/tfm/public/cm/cmsy10.tfm
INPUT /usr/share/texmf-dist/fonts/tfm/public/cm/cmsy8.tfm
INPUT /usr/share/texmf-dist/fonts/tfm/public/cm/cmsy6.tfm
INPUT /usr/share/texmf-dist/fonts/tfm/public/cm/cmex10.tfm
INPUT /usr/share/texmf-dist/fonts/tfm/public/amsfonts/cmextra/cmex8.tfm
INPUT /usr/share/texmf-dist/fonts/tfm/public/amsfonts/cmextra/cmex7.tfm
INPUT /usr/share/texmf-dist/tex/latex/amsfonts/umsa.fd
INPUT /usr/share/texmf-dist/tex/latex/amsfonts/umsa.fd
INPUT /usr/share/texmf-dist/fonts/tfm/public/amsfonts/symbols/msam10.tfm
INPUT /usr/share/texmf-dist/fonts/tfm/public/amsfonts/symbols/msam10.tfm
INPUT /usr/share/texmf-dist/fonts/tfm/public/amsfonts/symbols/msam7.tfm
INPUT /usr/share/texmf-dist/tex/latex/amsfonts/umsb.fd
INPUT /usr/share/texmf-dist/tex/latex/amsfonts/umsb.fd
INPUT /usr/share/texmf-dist/fonts/tfm/public/amsfonts/symbols/msbm10.tfm
INPUT /usr/share/texmf-dist/fonts/tfm/public/amsfonts/symbols/msbm10.tfm
INPUT /usr/share/texmf-dist/fonts/tfm/public/amsfonts/symbols/msbm7.tfm
OUTPUT /home/librantara/Documents/INTERNSHIP_DAN_TA/LateX/internship2ta2019/Librantara Erlangga/Internship_2/main.toc
INPUT /home/librantara/Documents/INTERNSHIP_DAN_TA/LateX/internship2ta2019/Librantara Erlangga/Internship_2/main.lof
INPUT /home/librantara/Documents/INTERNSHIP_DAN_TA/LateX/internship2ta2019/Librantara Erlangga/Internship_2/main.lof
OUTPUT /home/librantara/Documents/INTERNSHIP_DAN_TA/LateX/internship2ta2019/Librantara Erlangga/Internship_2/main.lof
INPUT /home/librantara/Documents/INTERNSHIP_DAN_TA/LateX/internship2ta2019/Librantara Erlangga/Internship_2/main.lot
INPUT /home/librantara/Documents/INTERNSHIP_DAN_TA/LateX/internship2ta2019/Librantara Erlangga/Internship_2/main.lot
OUTPUT /home/librantara/Documents/INTERNSHIP_DAN_TA/LateX/internship2ta2019/Librantara Erlangga/Internship_2/main.lot
OUTPUT /home/librantara/Documents/INTERNSHIP_DAN_TA/LateX/internship2ta2019/Librantara Erlangga/Internship_2/section/chapter1.aux
INPUT /home/librantara/Documents/INTERNSHIP_DAN_TA/LateX/internship2ta2019/Librantara Erlangga/Internship_2/section/chapter1.tex
INPUT /home/librantara/Documents/INTERNSHIP_DAN_TA/LateX/internship2ta2019/Librantara Erlangga/Internship_2/section/chapter1.tex
INPUT /usr/share/texmf-dist/fonts/tfm/public/cm/cmbx12.tfm
INPUT /usr/share/texmf-dist/fonts/tfm/public/cm/cmbx12.tfm
OUTPUT /home/librantara/Documents/INTERNSHIP_DAN_TA/LateX/internship2ta2019/Librantara Erlangga/Internship_2/section/chapter2.aux
INPUT /home/librantara/Documents/INTERNSHIP_DAN_TA/LateX/internship2ta2019/Librantara Erlangga/Internship_2/section/chapter2.tex
INPUT /home/librantara/Documents/INTERNSHIP_DAN_TA/LateX/internship2ta2019/Librantara Erlangga/Internship_2/section/chapter2.tex
OUTPUT /home/librantara/Documents/INTERNSHIP_DAN_TA/LateX/internship2ta2019/Librantara Erlangga/Internship_2/section/chapter3.aux
INPUT /home/librantara/Documents/INTERNSHIP_DAN_TA/LateX/internship2ta2019/Librantara Erlangga/Internship_2/section/chapter3.tex
INPUT /home/librantara/Documents/INTERNSHIP_DAN_TA/LateX/internship2ta2019/Librantara Erlangga/Internship_2/section/chapter3.tex
INPUT /home/librantara/Documents/INTERNSHIP_DAN_TA/LateX/internship2ta2019/Librantara Erlangga/Internship_2/figures/docotel.png
INPUT /home/librantara/Documents/INTERNSHIP_DAN_TA/LateX/internship2ta2019/Librantara Erlangga/Internship_2/figures/docotel.png
INPUT /home/librantara/Documents/INTERNSHIP_DAN_TA/LateX/internship2ta2019/Librantara Erlangga/Internship_2/figures/docotel.png
INPUT /usr/share/texmf-dist/fonts/tfm/public/cm/cmbxti10.tfm
OUTPUT /home/librantara/Documents/INTERNSHIP_DAN_TA/LateX/internship2ta2019/Librantara Erlangga/Internship_2/section/chapter4.aux
INPUT /home/librantara/Documents/INTERNSHIP_DAN_TA/LateX/internship2ta2019/Librantara Erlangga/Internship_2/section/chapter4.tex
INPUT /home/librantara/Documents/INTERNSHIP_DAN_TA/LateX/internship2ta2019/Librantara Erlangga/Internship_2/section/chapter4.tex
INPUT /home/librantara/Documents/INTERNSHIP_DAN_TA/LateX/internship2ta2019/Librantara Erlangga/Internship_2/figures/xp.png
INPUT /home/librantara/Documents/INTERNSHIP_DAN_TA/LateX/internship2ta2019/Librantara Erlangga/Internship_2/figures/xp.png
INPUT /home/librantara/Documents/INTERNSHIP_DAN_TA/LateX/internship2ta2019/Librantara Erlangga/Internship_2/figures/xp.png
OUTPUT /home/librantara/Documents/INTERNSHIP_DAN_TA/LateX/internship2ta2019/Librantara Erlangga/Internship_2/section/chapter5.aux
INPUT /home/librantara/Documents/INTERNSHIP_DAN_TA/LateX/internship2ta2019/Librantara Erlangga/Internship_2/section/chapter5.tex
INPUT /home/librantara/Documents/INTERNSHIP_DAN_TA/LateX/internship2ta2019/Librantara Erlangga/Internship_2/section/chapter5.tex
INPUT /home/librantara/Documents/INTERNSHIP_DAN_TA/LateX/internship2ta2019/Librantara Erlangga/Internship_2/figures/ArsitekturSebelum.jpg
INPUT /home/librantara/Documents/INTERNSHIP_DAN_TA/LateX/internship2ta2019/Librantara Erlangga/Internship_2/figures/ArsitekturSebelum.jpg
INPUT /home/librantara/Documents/INTERNSHIP_DAN_TA/LateX/internship2ta2019/Librantara Erlangga/Internship_2/figures/ArsitekturSebelum.jpg
INPUT /home/librantara/Documents/INTERNSHIP_DAN_TA/LateX/internship2ta2019/Librantara Erlangga/Internship_2/figures/ArsitekturSesudah.jpg
INPUT /home/librantara/Documents/INTERNSHIP_DAN_TA/LateX/internship2ta2019/Librantara Erlangga/Internship_2/figures/ArsitekturSesudah.jpg
INPUT /home/librantara/Documents/INTERNSHIP_DAN_TA/LateX/internship2ta2019/Librantara Erlangga/Internship_2/figures/ArsitekturSesudah.jpg
INPUT /home/librantara/Documents/INTERNSHIP_DAN_TA/LateX/internship2ta2019/Librantara Erlangga/Internship_2/figures/Usecase.png
INPUT /home/librantara/Documents/INTERNSHIP_DAN_TA/LateX/internship2ta2019/Librantara Erlangga/Internship_2/figures/Usecase.png
INPUT /home/librantara/Documents/INTERNSHIP_DAN_TA/LateX/internship2ta2019/Librantara Erlangga/Internship_2/figures/Usecase.png
INPUT /home/librantara/Documents/INTERNSHIP_DAN_TA/LateX/internship2ta2019/Librantara Erlangga/Internship_2/figures/ClassD.jpeg
INPUT /home/librantara/Documents/INTERNSHIP_DAN_TA/LateX/internship2ta2019/Librantara Erlangga/Internship_2/figures/ClassD.jpeg
INPUT /home/librantara/Documents/INTERNSHIP_DAN_TA/LateX/internship2ta2019/Librantara Erlangga/Internship_2/figures/ClassD.jpeg
INPUT /home/librantara/Documents/INTERNSHIP_DAN_TA/LateX/internship2ta2019/Librantara Erlangga/Internship_2/figures/Sequence/SeqHome.jpg
INPUT /home/librantara/Documents/INTERNSHIP_DAN_TA/LateX/internship2ta2019/Librantara Erlangga/Internship_2/figures/Sequence/SeqHome.jpg
INPUT /home/librantara/Documents/INTERNSHIP_DAN_TA/LateX/internship2ta2019/Librantara Erlangga/Internship_2/figures/Sequence/SeqHome.jpg
INPUT /home/librantara/Documents/INTERNSHIP_DAN_TA/LateX/internship2ta2019/Librantara Erlangga/Internship_2/figures/Sequence/SeqProduct.jpg
INPUT /home/librantara/Documents/INTERNSHIP_DAN_TA/LateX/internship2ta2019/Librantara Erlangga/Internship_2/figures/Sequence/SeqProduct.jpg
INPUT /home/librantara/Documents/INTERNSHIP_DAN_TA/LateX/internship2ta2019/Librantara Erlangga/Internship_2/figures/Sequence/SeqProduct.jpg
INPUT /home/librantara/Documents/INTERNSHIP_DAN_TA/LateX/internship2ta2019/Librantara Erlangga/Internship_2/figures/Sequence/SeqFeatures.jpg
INPUT /home/librantara/Documents/INTERNSHIP_DAN_TA/LateX/internship2ta2019/Librantara Erlangga/Internship_2/figures/Sequence/SeqFeatures.jpg
INPUT /home/librantara/Documents/INTERNSHIP_DAN_TA/LateX/internship2ta2019/Librantara Erlangga/Internship_2/figures/Sequence/SeqFeatures.jpg
INPUT /home/librantara/Documents/INTERNSHIP_DAN_TA/LateX/internship2ta2019/Librantara Erlangga/Internship_2/figures/Sequence/SeqKB.jpg
INPUT /home/librantara/Documents/INTERNSHIP_DAN_TA/LateX/internship2ta2019/Librantara Erlangga/Internship_2/figures/Sequence/SeqKB.jpg
INPUT /home/librantara/Documents/INTERNSHIP_DAN_TA/LateX/internship2ta2019/Librantara Erlangga/Internship_2/figures/Sequence/SeqKB.jpg
INPUT /home/librantara/Documents/INTERNSHIP_DAN_TA/LateX/internship2ta2019/Librantara Erlangga/Internship_2/figures/Sequence/SeqContact.jpg
INPUT /home/librantara/Documents/INTERNSHIP_DAN_TA/LateX/internship2ta2019/Librantara Erlangga/Internship_2/figures/Sequence/SeqContact.jpg
INPUT /home/librantara/Documents/INTERNSHIP_DAN_TA/LateX/internship2ta2019/Librantara Erlangga/Internship_2/figures/Sequence/SeqContact.jpg
INPUT /home/librantara/Documents/INTERNSHIP_DAN_TA/LateX/internship2ta2019/Librantara Erlangga/Internship_2/figures/Activity/ActivHome.jpg
INPUT /home/librantara/Documents/INTERNSHIP_DAN_TA/LateX/internship2ta2019/Librantara Erlangga/Internship_2/figures/Activity/ActivHome.jpg
INPUT /home/librantara/Documents/INTERNSHIP_DAN_TA/LateX/internship2ta2019/Librantara Erlangga/Internship_2/figures/Activity/ActivHome.jpg
INPUT /home/librantara/Documents/INTERNSHIP_DAN_TA/LateX/internship2ta2019/Librantara Erlangga/Internship_2/figures/Activity/ActivProduct.jpg
INPUT /home/librantara/Documents/INTERNSHIP_DAN_TA/LateX/internship2ta2019/Librantara Erlangga/Internship_2/figures/Activity/ActivProduct.jpg
INPUT /home/librantara/Documents/INTERNSHIP_DAN_TA/LateX/internship2ta2019/Librantara Erlangga/Internship_2/figures/Activity/ActivProduct.jpg
INPUT /home/librantara/Documents/INTERNSHIP_DAN_TA/LateX/internship2ta2019/Librantara Erlangga/Internship_2/figures/Activity/ActivFeatures.jpg
INPUT /home/librantara/Documents/INTERNSHIP_DAN_TA/LateX/internship2ta2019/Librantara Erlangga/Internship_2/figures/Activity/ActivFeatures.jpg
INPUT /home/librantara/Documents/INTERNSHIP_DAN_TA/LateX/internship2ta2019/Librantara Erlangga/Internship_2/figures/Activity/ActivFeatures.jpg
INPUT /home/librantara/Documents/INTERNSHIP_DAN_TA/LateX/internship2ta2019/Librantara Erlangga/Internship_2/figures/Activity/ActivContact.jpg
INPUT /home/librantara/Documents/INTERNSHIP_DAN_TA/LateX/internship2ta2019/Librantara Erlangga/Internship_2/figures/Activity/ActivContact.jpg
INPUT /home/librantara/Documents/INTERNSHIP_DAN_TA/LateX/internship2ta2019/Librantara Erlangga/Internship_2/figures/Activity/ActivContact.jpg
INPUT /home/librantara/Documents/INTERNSHIP_DAN_TA/LateX/internship2ta2019/Librantara Erlangga/Internship_2/figures/Collaboration/CommunicationDiagramHomePages.PNG
INPUT /home/librantara/Documents/INTERNSHIP_DAN_TA/LateX/internship2ta2019/Librantara Erlangga/Internship_2/figures/Collaboration/CommunicationDiagramHomePages.PNG
INPUT /home/librantara/Documents/INTERNSHIP_DAN_TA/LateX/internship2ta2019/Librantara Erlangga/Internship_2/figures/Collaboration/CommunicationDiagramHomePages.PNG
INPUT /home/librantara/Documents/INTERNSHIP_DAN_TA/LateX/internship2ta2019/Librantara Erlangga/Internship_2/figures/Collaboration/CommunicationDiagramProductPage.PNG
INPUT /home/librantara/Documents/INTERNSHIP_DAN_TA/LateX/internship2ta2019/Librantara Erlangga/Internship_2/figures/Collaboration/CommunicationDiagramProductPage.PNG
INPUT /home/librantara/Documents/INTERNSHIP_DAN_TA/LateX/internship2ta2019/Librantara Erlangga/Internship_2/figures/Collaboration/CommunicationDiagramProductPage.PNG
INPUT /home/librantara/Documents/INTERNSHIP_DAN_TA/LateX/internship2ta2019/Librantara Erlangga/Internship_2/figures/Collaboration/CommunicationDiagramFeatruePages.PNG
INPUT /home/librantara/Documents/INTERNSHIP_DAN_TA/LateX/internship2ta2019/Librantara Erlangga/Internship_2/figures/Collaboration/CommunicationDiagramFeatruePages.PNG
INPUT /home/librantara/Documents/INTERNSHIP_DAN_TA/LateX/internship2ta2019/Librantara Erlangga/Internship_2/figures/Collaboration/CommunicationDiagramFeatruePages.PNG
INPUT /home/librantara/Documents/INTERNSHIP_DAN_TA/LateX/internship2ta2019/Librantara Erlangga/Internship_2/figures/Collaboration/CommunicationDiagramKnowledgeBasePage.PNG
INPUT /home/librantara/Documents/INTERNSHIP_DAN_TA/LateX/internship2ta2019/Librantara Erlangga/Internship_2/figures/Collaboration/CommunicationDiagramKnowledgeBasePage.PNG
INPUT /home/librantara/Documents/INTERNSHIP_DAN_TA/LateX/internship2ta2019/Librantara Erlangga/Internship_2/figures/Collaboration/CommunicationDiagramKnowledgeBasePage.PNG
INPUT /home/librantara/Documents/INTERNSHIP_DAN_TA/LateX/internship2ta2019/Librantara Erlangga/Internship_2/figures/Collaboration/CommunicationDiagramContactPage.PNG
INPUT /home/librantara/Documents/INTERNSHIP_DAN_TA/LateX/internship2ta2019/Librantara Erlangga/Internship_2/figures/Collaboration/CommunicationDiagramContactPage.PNG
INPUT /home/librantara/Documents/INTERNSHIP_DAN_TA/LateX/internship2ta2019/Librantara Erlangga/Internship_2/figures/Collaboration/CommunicationDiagramContactPage.PNG
INPUT /home/librantara/Documents/INTERNSHIP_DAN_TA/LateX/internship2ta2019/Librantara Erlangga/Internship_2/figures/StateChart/Home.jpg
INPUT /home/librantara/Documents/INTERNSHIP_DAN_TA/LateX/internship2ta2019/Librantara Erlangga/Internship_2/figures/StateChart/Home.jpg
INPUT /home/librantara/Documents/INTERNSHIP_DAN_TA/LateX/internship2ta2019/Librantara Erlangga/Internship_2/figures/StateChart/Home.jpg
INPUT /home/librantara/Documents/INTERNSHIP_DAN_TA/LateX/internship2ta2019/Librantara Erlangga/Internship_2/figures/StateChart/Product.jpg
INPUT /home/librantara/Documents/INTERNSHIP_DAN_TA/LateX/internship2ta2019/Librantara Erlangga/Internship_2/figures/StateChart/Product.jpg
INPUT /home/librantara/Documents/INTERNSHIP_DAN_TA/LateX/internship2ta2019/Librantara Erlangga/Internship_2/figures/StateChart/Product.jpg
INPUT /home/librantara/Documents/INTERNSHIP_DAN_TA/LateX/internship2ta2019/Librantara Erlangga/Internship_2/figures/StateChart/Features.jpg
INPUT /home/librantara/Documents/INTERNSHIP_DAN_TA/LateX/internship2ta2019/Librantara Erlangga/Internship_2/figures/StateChart/Features.jpg
INPUT /home/librantara/Documents/INTERNSHIP_DAN_TA/LateX/internship2ta2019/Librantara Erlangga/Internship_2/figures/StateChart/Features.jpg
INPUT /home/librantara/Documents/INTERNSHIP_DAN_TA/LateX/internship2ta2019/Librantara Erlangga/Internship_2/figures/StateChart/PMK.jpg
INPUT /home/librantara/Documents/INTERNSHIP_DAN_TA/LateX/internship2ta2019/Librantara Erlangga/Internship_2/figures/StateChart/PMK.jpg
INPUT /home/librantara/Documents/INTERNSHIP_DAN_TA/LateX/internship2ta2019/Librantara Erlangga/Internship_2/figures/StateChart/PMK.jpg
INPUT /home/librantara/Documents/INTERNSHIP_DAN_TA/LateX/internship2ta2019/Librantara Erlangga/Internship_2/figures/StateChart/Contact.jpg
INPUT /home/librantara/Documents/INTERNSHIP_DAN_TA/LateX/internship2ta2019/Librantara Erlangga/Internship_2/figures/StateChart/Contact.jpg
INPUT /home/librantara/Documents/INTERNSHIP_DAN_TA/LateX/internship2ta2019/Librantara Erlangga/Internship_2/figures/StateChart/Contact.jpg
INPUT /home/librantara/Documents/INTERNSHIP_DAN_TA/LateX/internship2ta2019/Librantara Erlangga/Internship_2/figures/UI/HomePages.png
INPUT /home/librantara/Documents/INTERNSHIP_DAN_TA/LateX/internship2ta2019/Librantara Erlangga/Internship_2/figures/UI/HomePages.png
INPUT /home/librantara/Documents/INTERNSHIP_DAN_TA/LateX/internship2ta2019/Librantara Erlangga/Internship_2/figures/UI/HomePages.png
INPUT /home/librantara/Documents/INTERNSHIP_DAN_TA/LateX/internship2ta2019/Librantara Erlangga/Internship_2/figures/UI/ProductPages.png
INPUT /home/librantara/Documents/INTERNSHIP_DAN_TA/LateX/internship2ta2019/Librantara Erlangga/Internship_2/figures/UI/ProductPages.png
INPUT /home/librantara/Documents/INTERNSHIP_DAN_TA/LateX/internship2ta2019/Librantara Erlangga/Internship_2/figures/UI/ProductPages.png
INPUT /home/librantara/Documents/INTERNSHIP_DAN_TA/LateX/internship2ta2019/Librantara Erlangga/Internship_2/figures/UI/FeturesPages.png
INPUT /home/librantara/Documents/INTERNSHIP_DAN_TA/LateX/internship2ta2019/Librantara Erlangga/Internship_2/figures/UI/FeturesPages.png
INPUT /home/librantara/Documents/INTERNSHIP_DAN_TA/LateX/internship2ta2019/Librantara Erlangga/Internship_2/figures/UI/FeturesPages.png
INPUT /home/librantara/Documents/INTERNSHIP_DAN_TA/LateX/internship2ta2019/Librantara Erlangga/Internship_2/figures/UI/KnowledgeBasePage.png
INPUT /home/librantara/Documents/INTERNSHIP_DAN_TA/LateX/internship2ta2019/Librantara Erlangga/Internship_2/figures/UI/KnowledgeBasePage.png
INPUT /home/librantara/Documents/INTERNSHIP_DAN_TA/LateX/internship2ta2019/Librantara Erlangga/Internship_2/figures/UI/KnowledgeBasePage.png
INPUT /home/librantara/Documents/INTERNSHIP_DAN_TA/LateX/internship2ta2019/Librantara Erlangga/Internship_2/figures/UI/ContactPage.png
INPUT /home/librantara/Documents/INTERNSHIP_DAN_TA/LateX/internship2ta2019/Librantara Erlangga/Internship_2/figures/UI/ContactPage.png
INPUT /home/librantara/Documents/INTERNSHIP_DAN_TA/LateX/internship2ta2019/Librantara Erlangga/Internship_2/figures/UI/ContactPage.png
OUTPUT /home/librantara/Documents/INTERNSHIP_DAN_TA/LateX/internship2ta2019/Librantara Erlangga/Internship_2/section/chapter6.aux
INPUT /home/librantara/Documents/INTERNSHIP_DAN_TA/LateX/internship2ta2019/Librantara Erlangga/Internship_2/section/chapter6.tex
INPUT /home/librantara/Documents/INTERNSHIP_DAN_TA/LateX/internship2ta2019/Librantara Erlangga/Internship_2/section/chapter6.tex
INPUT /usr/share/texmf-dist/tex/latex/base/omscmr.fd
INPUT /usr/share/texmf-dist/tex/latex/base/omscmr.fd
INPUT /home/librantara/Documents/INTERNSHIP_DAN_TA/LateX/internship2ta2019/Librantara Erlangga/Internship_2/figures/SS/Home.png
INPUT /home/librantara/Documents/INTERNSHIP_DAN_TA/LateX/internship2ta2019/Librantara Erlangga/Internship_2/figures/SS/Home.png
INPUT /home/librantara/Documents/INTERNSHIP_DAN_TA/LateX/internship2ta2019/Librantara Erlangga/Internship_2/figures/SS/Home.png
INPUT /home/librantara/Documents/INTERNSHIP_DAN_TA/LateX/internship2ta2019/Librantara Erlangga/Internship_2/figures/SS/Product.png
INPUT /home/librantara/Documents/INTERNSHIP_DAN_TA/LateX/internship2ta2019/Librantara Erlangga/Internship_2/figures/SS/Product.png
INPUT /home/librantara/Documents/INTERNSHIP_DAN_TA/LateX/internship2ta2019/Librantara Erlangga/Internship_2/figures/SS/Product.png
INPUT /home/librantara/Documents/INTERNSHIP_DAN_TA/LateX/internship2ta2019/Librantara Erlangga/Internship_2/figures/SS/Features.png
INPUT /home/librantara/Documents/INTERNSHIP_DAN_TA/LateX/internship2ta2019/Librantara Erlangga/Internship_2/figures/SS/Features.png
INPUT /home/librantara/Documents/INTERNSHIP_DAN_TA/LateX/internship2ta2019/Librantara Erlangga/Internship_2/figures/SS/Features.png
INPUT /home/librantara/Documents/INTERNSHIP_DAN_TA/LateX/internship2ta2019/Librantara Erlangga/Internship_2/figures/SS/PMK.png
INPUT /home/librantara/Documents/INTERNSHIP_DAN_TA/LateX/internship2ta2019/Librantara Erlangga/Internship_2/figures/SS/PMK.png
INPUT /home/librantara/Documents/INTERNSHIP_DAN_TA/LateX/internship2ta2019/Librantara Erlangga/Internship_2/figures/SS/PMK.png
INPUT /home/librantara/Documents/INTERNSHIP_DAN_TA/LateX/internship2ta2019/Librantara Erlangga/Internship_2/figures/SS/Contact.png
INPUT /home/librantara/Documents/INTERNSHIP_DAN_TA/LateX/internship2ta2019/Librantara Erlangga/Internship_2/figures/SS/Contact.png
INPUT /home/librantara/Documents/INTERNSHIP_DAN_TA/LateX/internship2ta2019/Librantara Erlangga/Internship_2/figures/SS/Contact.png
INPUT /home/librantara/Documents/INTERNSHIP_DAN_TA/LateX/internship2ta2019/Librantara Erlangga/Internship_2/figures/Compare/Gtmetrix/FullSebelum.PNG
INPUT /home/librantara/Documents/INTERNSHIP_DAN_TA/LateX/internship2ta2019/Librantara Erlangga/Internship_2/figures/Compare/Gtmetrix/FullSebelum.PNG
INPUT /home/librantara/Documents/INTERNSHIP_DAN_TA/LateX/internship2ta2019/Librantara Erlangga/Internship_2/figures/Compare/Gtmetrix/FullSebelum.PNG
INPUT /home/librantara/Documents/INTERNSHIP_DAN_TA/LateX/internship2ta2019/Librantara Erlangga/Internship_2/figures/Compare/Gtmetrix/FullSesudah.PNG
INPUT /home/librantara/Documents/INTERNSHIP_DAN_TA/LateX/internship2ta2019/Librantara Erlangga/Internship_2/figures/Compare/Gtmetrix/FullSesudah.PNG
INPUT /home/librantara/Documents/INTERNSHIP_DAN_TA/LateX/internship2ta2019/Librantara Erlangga/Internship_2/figures/Compare/Gtmetrix/FullSesudah.PNG
INPUT /home/librantara/Documents/INTERNSHIP_DAN_TA/LateX/internship2ta2019/Librantara Erlangga/Internship_2/figures/Compare/Gtmetrix/Detail1.PNG
INPUT /home/librantara/Documents/INTERNSHIP_DAN_TA/LateX/internship2ta2019/Librantara Erlangga/Internship_2/figures/Compare/Gtmetrix/Detail1.PNG
INPUT /home/librantara/Documents/INTERNSHIP_DAN_TA/LateX/internship2ta2019/Librantara Erlangga/Internship_2/figures/Compare/Gtmetrix/Detail1.PNG
INPUT /home/librantara/Documents/INTERNSHIP_DAN_TA/LateX/internship2ta2019/Librantara Erlangga/Internship_2/figures/Compare/Gtmetrix/Detail2.PNG
INPUT /home/librantara/Documents/INTERNSHIP_DAN_TA/LateX/internship2ta2019/Librantara Erlangga/Internship_2/figures/Compare/Gtmetrix/Detail2.PNG
INPUT /home/librantara/Documents/INTERNSHIP_DAN_TA/LateX/internship2ta2019/Librantara Erlangga/Internship_2/figures/Compare/Gtmetrix/Detail2.PNG
INPUT /home/librantara/Documents/INTERNSHIP_DAN_TA/LateX/internship2ta2019/Librantara Erlangga/Internship_2/figures/Compare/Gtmetrix/Detail3.PNG
INPUT /home/librantara/Documents/INTERNSHIP_DAN_TA/LateX/internship2ta2019/Librantara Erlangga/Internship_2/figures/Compare/Gtmetrix/Detail3.PNG
INPUT /home/librantara/Documents/INTERNSHIP_DAN_TA/LateX/internship2ta2019/Librantara Erlangga/Internship_2/figures/Compare/Gtmetrix/Detail3.PNG
INPUT /home/librantara/Documents/INTERNSHIP_DAN_TA/LateX/internship2ta2019/Librantara Erlangga/Internship_2/figures/Compare/Wapt/NonMicro/Sum.PNG
INPUT /home/librantara/Documents/INTERNSHIP_DAN_TA/LateX/internship2ta2019/Librantara Erlangga/Internship_2/figures/Compare/Wapt/NonMicro/Sum.PNG
INPUT /home/librantara/Documents/INTERNSHIP_DAN_TA/LateX/internship2ta2019/Librantara Erlangga/Internship_2/figures/Compare/Wapt/NonMicro/Sum.PNG
INPUT /home/librantara/Documents/INTERNSHIP_DAN_TA/LateX/internship2ta2019/Librantara Erlangga/Internship_2/figures/Compare/Wapt/Micro/Sum.PNG
INPUT /home/librantara/Documents/INTERNSHIP_DAN_TA/LateX/internship2ta2019/Librantara Erlangga/Internship_2/figures/Compare/Wapt/Micro/Sum.PNG
INPUT /home/librantara/Documents/INTERNSHIP_DAN_TA/LateX/internship2ta2019/Librantara Erlangga/Internship_2/figures/Compare/Wapt/Micro/Sum.PNG
OUTPUT /home/librantara/Documents/INTERNSHIP_DAN_TA/LateX/internship2ta2019/Librantara Erlangga/Internship_2/section/chapter7.aux
INPUT /home/librantara/Documents/INTERNSHIP_DAN_TA/LateX/internship2ta2019/Librantara Erlangga/Internship_2/section/chapter7.tex
INPUT /home/librantara/Documents/INTERNSHIP_DAN_TA/LateX/internship2ta2019/Librantara Erlangga/Internship_2/section/chapter7.tex
INPUT /home/librantara/Documents/INTERNSHIP_DAN_TA/LateX/internship2ta2019/Librantara Erlangga/Internship_2/main.bbl
INPUT /home/librantara/Documents/INTERNSHIP_DAN_TA/LateX/internship2ta2019/Librantara Erlangga/Internship_2/main.bbl
INPUT /home/librantara/Documents/INTERNSHIP_DAN_TA/LateX/internship2ta2019/Librantara Erlangga/Internship_2/main.aux
INPUT /home/librantara/Documents/INTERNSHIP_DAN_TA/LateX/internship2ta2019/Librantara Erlangga/Internship_2/section/dedication.aux
INPUT /home/librantara/Documents/INTERNSHIP_DAN_TA/LateX/internship2ta2019/Librantara Erlangga/Internship_2/section/dedication.aux
INPUT /home/librantara/Documents/INTERNSHIP_DAN_TA/LateX/internship2ta2019/Librantara Erlangga/Internship_2/section/acknowlegements.aux
INPUT /home/librantara/Documents/INTERNSHIP_DAN_TA/LateX/internship2ta2019/Librantara Erlangga/Internship_2/section/acknowlegements.aux
INPUT /home/librantara/Documents/INTERNSHIP_DAN_TA/LateX/internship2ta2019/Librantara Erlangga/Internship_2/section/abstrak.aux
INPUT /home/librantara/Documents/INTERNSHIP_DAN_TA/LateX/internship2ta2019/Librantara Erlangga/Internship_2/section/abstrak.aux
INPUT /home/librantara/Documents/INTERNSHIP_DAN_TA/LateX/internship2ta2019/Librantara Erlangga/Internship_2/section/abstract.aux
INPUT /home/librantara/Documents/INTERNSHIP_DAN_TA/LateX/internship2ta2019/Librantara Erlangga/Internship_2/section/abstract.aux
INPUT /home/librantara/Documents/INTERNSHIP_DAN_TA/LateX/internship2ta2019/Librantara Erlangga/Internship_2/section/chapter1.aux
INPUT /home/librantara/Documents/INTERNSHIP_DAN_TA/LateX/internship2ta2019/Librantara Erlangga/Internship_2/section/chapter1.aux
INPUT /home/librantara/Documents/INTERNSHIP_DAN_TA/LateX/internship2ta2019/Librantara Erlangga/Internship_2/section/chapter2.aux
INPUT /home/librantara/Documents/INTERNSHIP_DAN_TA/LateX/internship2ta2019/Librantara Erlangga/Internship_2/section/chapter2.aux
INPUT /home/librantara/Documents/INTERNSHIP_DAN_TA/LateX/internship2ta2019/Librantara Erlangga/Internship_2/section/chapter3.aux
INPUT /home/librantara/Documents/INTERNSHIP_DAN_TA/LateX/internship2ta2019/Librantara Erlangga/Internship_2/section/chapter3.aux
INPUT /home/librantara/Documents/INTERNSHIP_DAN_TA/LateX/internship2ta2019/Librantara Erlangga/Internship_2/section/chapter4.aux
INPUT /home/librantara/Documents/INTERNSHIP_DAN_TA/LateX/internship2ta2019/Librantara Erlangga/Internship_2/section/chapter4.aux
INPUT /home/librantara/Documents/INTERNSHIP_DAN_TA/LateX/internship2ta2019/Librantara Erlangga/Internship_2/section/chapter5.aux
INPUT /home/librantara/Documents/INTERNSHIP_DAN_TA/LateX/internship2ta2019/Librantara Erlangga/Internship_2/section/chapter5.aux
INPUT /home/librantara/Documents/INTERNSHIP_DAN_TA/LateX/internship2ta2019/Librantara Erlangga/Internship_2/section/chapter6.aux
INPUT /home/librantara/Documents/INTERNSHIP_DAN_TA/LateX/internship2ta2019/Librantara Erlangga/Internship_2/section/chapter6.aux
INPUT /home/librantara/Documents/INTERNSHIP_DAN_TA/LateX/internship2ta2019/Librantara Erlangga/Internship_2/section/chapter7.aux
INPUT /home/librantara/Documents/INTERNSHIP_DAN_TA/LateX/internship2ta2019/Librantara Erlangga/Internship_2/section/chapter7.aux
INPUT /usr/share/texmf-dist/fonts/type1/public/amsfonts/cm/cmbx12.pfb
INPUT /usr/share/texmf-dist/fonts/type1/public/amsfonts/cm/cmbxti10.pfb
INPUT /usr/share/texmf-dist/fonts/type1/public/amsfonts/cm/cmr12.pfb
INPUT /usr/share/texmf-dist/fonts/type1/public/amsfonts/cm/cmr17.pfb
INPUT /usr/share/texmf-dist/fonts/type1/public/amsfonts/cm/cmsy10.pfb
INPUT /usr/share/texmf-dist/fonts/type1/public/amsfonts/cm/cmti12.pfb
