\addvspace {10\p@ }
\addvspace {10\p@ }
\addvspace {10\p@ }
\contentsline {figure}{\numberline {III.1}{\ignorespaces Logo Docotel Teknologi}}{9}% 
\addvspace {10\p@ }
\contentsline {figure}{\numberline {IV.1}{\ignorespaces Tahapan Dalam XP}}{11}% 
\addvspace {10\p@ }
\contentsline {figure}{\numberline {V.1}{\ignorespaces Arsitektur Website D'health}}{13}% 
\contentsline {figure}{\numberline {V.2}{\ignorespaces Arsitektur yang akan dibangun pada Website D'health}}{14}% 
\contentsline {figure}{\numberline {V.3}{\ignorespaces Usecae Diagram pada Website D'health}}{16}% 
\contentsline {figure}{\numberline {V.4}{\ignorespaces Class Diagram Website D'health}}{19}% 
\contentsline {figure}{\numberline {V.5}{\ignorespaces Sequence Diagram Melihat Halaman Home \textit {website} D'health}}{20}% 
\contentsline {figure}{\numberline {V.6}{\ignorespaces Sequence Diagram Melihat Halaman Produk \textit {website} D'health}}{21}% 
\contentsline {figure}{\numberline {V.7}{\ignorespaces Sequence Diagram Melihat Halaman Fitur \textit {website} D'health}}{22}% 
\contentsline {figure}{\numberline {V.8}{\ignorespaces Sequence Diagram Melihat Halaman Knowledge Base \textit {website} D'health}}{23}% 
\contentsline {figure}{\numberline {V.9}{\ignorespaces Sequence Diagram Melihat Halaman Kontak \textit {website} D'health}}{24}% 
\contentsline {figure}{\numberline {V.10}{\ignorespaces Activity Diagram Melihat Halaman Home \textit {website} D'health}}{25}% 
\contentsline {figure}{\numberline {V.11}{\ignorespaces Activity Diagram Melihat Halaman Produk \textit {website} D'health}}{26}% 
\contentsline {figure}{\numberline {V.12}{\ignorespaces Activity Diagram Melihat Halaman Fitur \textit {website} D'health}}{26}% 
\contentsline {figure}{\numberline {V.13}{\ignorespaces Activity Diagram Melihat Halaman Kontak \textit {website} D'health}}{27}% 
\contentsline {figure}{\numberline {V.14}{\ignorespaces Collaboration Diagram Melihat Halaman Home \textit {website} D'health}}{28}% 
\contentsline {figure}{\numberline {V.15}{\ignorespaces Collaboration Diagram Melihat Halaman Prouk \textit {website} D'health}}{29}% 
\contentsline {figure}{\numberline {V.16}{\ignorespaces Collaboration Diagram Melihat Halaman Fitur \textit {website} D'health}}{29}% 
\contentsline {figure}{\numberline {V.17}{\ignorespaces Collaboration Diagram Melihat Halaman \textit {Knowledge Base} \textit {website} D'health}}{30}% 
\contentsline {figure}{\numberline {V.18}{\ignorespaces Collaboration Diagram Melihat Halaman Kontak \textit {website} D'health}}{30}% 
\contentsline {figure}{\numberline {V.19}{\ignorespaces Statechart Diagram Melihat Halaman Home \textit {website} D'health}}{31}% 
\contentsline {figure}{\numberline {V.20}{\ignorespaces Statechart Diagram Melihat Halaman Produk \textit {website} D'health}}{31}% 
\contentsline {figure}{\numberline {V.21}{\ignorespaces Statechart Diagram Melihat Halaman Fitur \textit {website} D'health}}{31}% 
\contentsline {figure}{\numberline {V.22}{\ignorespaces Statechart Diagram Melihat Halaman \textit {Knowledge Base} \textit {website} D'health}}{31}% 
\contentsline {figure}{\numberline {V.23}{\ignorespaces Statechart Diagram Melihat Halaman Kontak \textit {website} D'health}}{32}% 
\contentsline {figure}{\numberline {V.24}{\ignorespaces Perancangan Antar Muka Halaman Home \textit {website} D'health}}{32}% 
\contentsline {figure}{\numberline {V.25}{\ignorespaces Perancangan Antar Muka Halaman Produk \textit {website} D'health}}{33}% 
\contentsline {figure}{\numberline {V.26}{\ignorespaces Perancangan Antar Muka Halaman Fitur \textit {website} D'health}}{33}% 
\contentsline {figure}{\numberline {V.27}{\ignorespaces Perancangan Antar Muka Halaman \textit {Knowledge Base} \textit {website} D'health}}{34}% 
\contentsline {figure}{\numberline {V.28}{\ignorespaces Perancangan Antar Muka Halaman Kontak \textit {website} D'health}}{34}% 
\addvspace {10\p@ }
\contentsline {figure}{\numberline {VI.1}{\ignorespaces Halaman Home \textit {website} d'health}}{37}% 
\contentsline {figure}{\numberline {VI.2}{\ignorespaces Halaman Product \textit {website} d'health}}{37}% 
\contentsline {figure}{\numberline {VI.3}{\ignorespaces Halaman Features \textit {website} d'health}}{38}% 
\contentsline {figure}{\numberline {VI.4}{\ignorespaces Halaman Knowledge-Base \textit {website} d'health}}{38}% 
\contentsline {figure}{\numberline {VI.5}{\ignorespaces Halaman Contact \textit {website} d'health}}{39}% 
\contentsline {figure}{\numberline {VI.6}{\ignorespaces \textit {website} d'health tanpa \textit {microservices}}}{40}% 
\contentsline {figure}{\numberline {VI.7}{\ignorespaces \textit {website} d'health dengan \textit {microservices}}}{40}% 
\contentsline {figure}{\numberline {VI.8}{\ignorespaces \textit {website} d'health \textit {PageSpeed scores}}}{41}% 
\contentsline {figure}{\numberline {VI.9}{\ignorespaces \textit {website} d'health \textit {YSlow Scores}}}{41}% 
\contentsline {figure}{\numberline {VI.10}{\ignorespaces \textit {website} d'health \textit {Loaded Pages Speed}}}{41}% 
\contentsline {figure}{\numberline {VI.11}{\ignorespaces Hasil Pengujian \textit {stress testing} \textit {website} d'health tanpa \textit {microservices}}}{41}% 
\contentsline {figure}{\numberline {VI.12}{\ignorespaces Hasil Pengujian \textit {stress testing} \textit {website} d'health dengan \textit {microservices}}}{41}% 
\addvspace {10\p@ }
