% Generated by IEEEtran.bst, version: 1.14 (2015/08/26)
\begin{thebibliography}{10}
\providecommand{\url}[1]{#1}
\csname url@samestyle\endcsname
\providecommand{\newblock}{\relax}
\providecommand{\bibinfo}[2]{#2}
\providecommand{\BIBentrySTDinterwordspacing}{\spaceskip=0pt\relax}
\providecommand{\BIBentryALTinterwordstretchfactor}{4}
\providecommand{\BIBentryALTinterwordspacing}{\spaceskip=\fontdimen2\font plus
\BIBentryALTinterwordstretchfactor\fontdimen3\font minus
  \fontdimen4\font\relax}
\providecommand{\BIBforeignlanguage}[2]{{%
\expandafter\ifx\csname l@#1\endcsname\relax
\typeout{** WARNING: IEEEtran.bst: No hyphenation pattern has been}%
\typeout{** loaded for the language `#1'. Using the pattern for}%
\typeout{** the default language instead.}%
\else
\language=\csname l@#1\endcsname
\fi
#2}}
\providecommand{\BIBdecl}{\relax}
\BIBdecl

\bibitem{perdana2018pengembangan}
M.~A.~K. Perdana, ``Pengembangan rest api layanan penyimpanan menggunakan
  metode rapid application development (studi kasus pt. xyz),''
  \emph{InfoTekJar: Jurnal Nasional Informatika dan Teknologi Jaringan},
  vol.~3, no.~1, pp. 100--104, 2018.

\bibitem{devadiga2017software}
N.~M. Devadiga, ``Software engineering education: Converging with the startup
  industry,'' in \emph{2017 IEEE 30th Conference on Software Engineering
  Education and Training (CSEE\&T)}.\hskip 1em plus 0.5em minus 0.4em\relax
  IEEE, 2017, pp. 192--196.

\bibitem{paternoster2014software}
N.~Paternoster, C.~Giardino, M.~Unterkalmsteiner, T.~Gorschek, and
  P.~Abrahamsson, ``Software development in startup companies: A systematic
  mapping study,'' \emph{Information and Software Technology}, vol.~56, no.~10,
  pp. 1200--1218, 2014.

\bibitem{suryotrisongko2017arsitektur}
H.~Suryotrisongko, ``Arsitektur microservice untuk resiliensi sistem
  informasi,'' \emph{SISFO Vol 6 No 2}, vol.~6, 2017.

\bibitem{sendiang2018implementasi}
M.~Sendiang, S.~Kasenda, and J.~Purnama, ``Implementasi teknologi mikroservice
  pada pengembangan mobile learning,'' \emph{JOURNAL OF APPLIED INFORMATICS AND
  COMPUTING}, vol.~2, no.~2, pp. 63--66, 2018.

\bibitem{hermawanpeningkatan}
A.~HERMAWAN, ``Peningkatan ketersediaan aplikasi web menggunakan arsitektur
  layanan mikro berdasarkan identifikasi log akses,'' 2014.

\bibitem{brawijaya2018pengujian}
H.~Brawijaya, S.~Widodo, and S.~Samudi, ``Pengujian sistem informasi penjualan
  dan persediaan barang dengan web application load stress and performance
  testing (wapt),'' \emph{Information System For Educators and Professionals},
  vol.~2, no.~2, pp. 125--134, 2018.

\bibitem{maulana2017software}
R.~Maulana, F.~Wiharjo \emph{et~al.}, ``Software testing pengujian performansi
  dan tingkat stress pada website ekspedisi jne dan tiki,'' \emph{Jurnal
  INSYPRO (Information System and Processing)}, vol.~2, no.~1, 2017.

\bibitem{samudi2018penerapan}
S.~Samudi, H.~Brawijaya, and S.~Widodo, ``Penerapan metode waterfall dalam
  sistem informasi bank sampah berbasis web,'' \emph{Jurnal Ilmu Pengetahuan
  dan Teknologi Komputer}, vol.~3, no.~2, pp. 245--250, 2018.

\bibitem{godbolt2016frontend}
M.~Godbolt, \emph{Frontend Architecture for Design Systems: A Modern Blueprint
  for Scalable and Sustainable Websites}.\hskip 1em plus 0.5em minus
  0.4em\relax " O'Reilly Media, Inc.", 2016.

\bibitem{pis0809_2015}
\BIBentryALTinterwordspacing
M.~Pis0809, ``Sedikit pengetahuan mengenai stress test,'' Jun 2015. [Online].
  Available:
  \url{https://www.kompasiana.com/perempuan/55007272a33311926f511195/sedikit-pengetahuan-mengenai-stress-test}
\BIBentrySTDinterwordspacing

\bibitem{van2016web}
P.~Van, D.~A. Phipps, and S.~Lin, ``Web application performance testing,''
  Apr.~7 2016, uS Patent App. 14/730,692.

\bibitem{khanapurkar2014system}
A.~Khanapurkar, O.~Parab, and S.~Malan, ``System and method for automated
  performance testing in a dynamic production environment,'' Jun.~17 2014, uS
  Patent 8,756,586.

\bibitem{haryati2012research}
S.~Haryati, ``Research and development (r\&d) sebagai salah satu model
  penelitian dalam bidang pendidikan,'' \emph{Majalah Ilmiah Dinamika},
  vol.~37, no.~1, p.~15, 2012.

\bibitem{pressman2012rekayasa}
R.~S. Pressman, ``Rekayasa perangkat lunak: Pendekatan praktisi,'' 2012.

\bibitem{mulyani2017metode}
S.~Mulyani \emph{et~al.}, \emph{Metode Analisis dan Perancangan Sistem}.\hskip
  1em plus 0.5em minus 0.4em\relax Abdi Sistematika, 2017.

\bibitem{ghani2013role}
I.~Ghani, N.~Izzaty, and A.~Firdaus, ``Role-based extreme programming (xp) for
  secure software development,'' in \emph{Special Issue-Agile Symposium},
  vol.~25, 2013.

\bibitem{dalalah2014extreme}
A.~Dalalah, ``Extreme programming: Strengths and weaknesses,'' \emph{Computer
  Technology and Application}, vol.~5, no.~1, 2014.

\bibitem{akpolat2014enhancing}
B.~S. Akpolat and W.~Slany, ``Enhancing software engineering student team
  engagement in a high-intensity extreme programming course using
  gamification,'' in \emph{2014 IEEE 27th Conference on Software Engineering
  Education and Training (CSEE\&T)}.\hskip 1em plus 0.5em minus 0.4em\relax
  IEEE, 2014, pp. 149--153.

\bibitem{vos2013evolutionary}
T.~E. Vos, F.~F. Lindlar, B.~Wilmes, A.~Windisch, A.~I. Baars, P.~M. Kruse,
  H.~Gross, and J.~Wegener, ``Evolutionary functional black-box testing in an
  industrial setting,'' \emph{Software Quality Journal}, vol.~21, no.~2, pp.
  259--288, 2013.

\bibitem{kaur2016empirical}
S.~Kaur, K.~Kaur, and P.~Kaur, ``An empirical performance evaluation of
  universities website,'' \emph{International Journal of Computer
  Applications}, vol. 146, no.~15, pp. 10--16, 2016.

\bibitem{jati2018quality}
H.~Jati, R.~Wardani \emph{et~al.}, ``Quality analysis of university websites
  from usability side with multicriteria decision analysis method,'' in
  \emph{Journal of Physics: Conference Series}, vol. 1140, no.~1.\hskip 1em
  plus 0.5em minus 0.4em\relax IOP Publishing, 2018, p. 012038.

\end{thebibliography}
