\relax 
\citation{rahardjo2017studi}
\citation{juliansyah2016metodologi}
\@writefile{toc}{\contentsline {chapter}{\numberline {IV}METODOLOGI PENELITIAN}{14}\protected@file@percent }
\@writefile{lof}{\addvspace {10\p@ }}
\@writefile{lot}{\addvspace {10\p@ }}
\@writefile{toc}{\contentsline {section}{\numberline {4.1}Diagram Alur Metodologi Penelitian}{14}\protected@file@percent }
\@writefile{toc}{\contentsline {paragraph}{}{14}\protected@file@percent }
\@writefile{lof}{\contentsline {figure}{\numberline {IV.1}{\ignorespaces Gambaran Metodologi Penelitian\relax }}{14}\protected@file@percent }
\newlabel{arsitektur}{{IV.1}{14}}
\citation{pressman2012rekayasa}
\@writefile{toc}{\contentsline {subsection}{\numberline {4.1.1}Pengumpulan Data}{15}\protected@file@percent }
\@writefile{toc}{\contentsline {paragraph}{}{15}\protected@file@percent }
\@writefile{toc}{\contentsline {subsection}{\numberline {4.1.2}Studi Literatur}{15}\protected@file@percent }
\@writefile{toc}{\contentsline {paragraph}{}{15}\protected@file@percent }
\@writefile{toc}{\contentsline {subsection}{\numberline {4.1.3}Perancangan dan Implementasi Sistem}{15}\protected@file@percent }
\@writefile{toc}{\contentsline {paragraph}{}{15}\protected@file@percent }
\@writefile{lof}{\contentsline {figure}{\numberline {IV.2}{\ignorespaces Model Perancangan Sistem Waterfall\relax }}{15}\protected@file@percent }
\newlabel{waterfall}{{IV.2}{15}}
\@writefile{toc}{\contentsline {subsection}{\numberline {4.1.4}Pengujian Algoritma}{16}\protected@file@percent }
\@writefile{toc}{\contentsline {paragraph}{}{16}\protected@file@percent }
\@writefile{toc}{\contentsline {subsection}{\numberline {4.1.5}Kesimpulan}{16}\protected@file@percent }
\@writefile{toc}{\contentsline {paragraph}{}{16}\protected@file@percent }
\@writefile{toc}{\contentsline {section}{\numberline {4.2}Tahapan - Tahapan Diagram Metodologi Penelitian 1}{16}\protected@file@percent }
\@writefile{toc}{\contentsline {paragraph}{}{16}\protected@file@percent }
\@writefile{toc}{\contentsline {section}{\numberline {4.3}Tahapan - Tahapan Diagram Metodologi Penelitian 2}{17}\protected@file@percent }
\@writefile{toc}{\contentsline {paragraph}{}{17}\protected@file@percent }
\@writefile{lof}{\contentsline {figure}{\numberline {IV.3}{\ignorespaces Diagram Preprocessing\relax }}{18}\protected@file@percent }
\newlabel{nlp}{{IV.3}{18}}
\@writefile{lof}{\contentsline {figure}{\numberline {IV.4}{\ignorespaces Rumus Umum Cosine Similarity\relax }}{19}\protected@file@percent }
\newlabel{cosine}{{IV.4}{19}}
\@setckpt{section/chapter4}{
\setcounter{page}{20}
\setcounter{equation}{0}
\setcounter{enumi}{5}
\setcounter{enumii}{0}
\setcounter{enumiii}{0}
\setcounter{enumiv}{0}
\setcounter{footnote}{0}
\setcounter{mpfootnote}{0}
\setcounter{part}{0}
\setcounter{chapter}{4}
\setcounter{section}{3}
\setcounter{subsection}{0}
\setcounter{subsubsection}{0}
\setcounter{paragraph}{0}
\setcounter{subparagraph}{0}
\setcounter{figure}{4}
\setcounter{table}{0}
\setcounter{caption@flags}{0}
\setcounter{ContinuedFloat}{0}
}
