\contentsline {figure}{\numberline {1}{\ignorespaces Simbol Flowchart\relax }}{xiv}% 
\addvspace {10\p@ }
\addvspace {10\p@ }
\contentsline {figure}{\numberline {II.1}{\ignorespaces Rumus Umum Cosine Similarity\relax }}{9}% 
\addvspace {10\p@ }
\contentsline {figure}{\numberline {III.1}{\ignorespaces Objek Studi Penelitian\relax }}{12}% 
\addvspace {10\p@ }
\contentsline {figure}{\numberline {IV.1}{\ignorespaces Gambaran Metodologi Penelitian\relax }}{14}% 
\contentsline {figure}{\numberline {IV.2}{\ignorespaces Model Perancangan Sistem Waterfall\relax }}{15}% 
\contentsline {figure}{\numberline {IV.3}{\ignorespaces Diagram Preprocessing\relax }}{18}% 
\contentsline {figure}{\numberline {IV.4}{\ignorespaces Rumus Umum Cosine Similarity\relax }}{19}% 
\addvspace {10\p@ }
\contentsline {figure}{\numberline {V.1}{\ignorespaces Model Perancangan Sistem Waterfall\relax }}{20}% 
\contentsline {figure}{\numberline {V.2}{\ignorespaces Proses Bisnis Pengiriman Pertanyaan\relax }}{21}% 
\contentsline {figure}{\numberline {V.3}{\ignorespaces Proses Bisnis Setelah Mengimplementasikan Cosine similarity\relax }}{22}% 
\contentsline {figure}{\numberline {V.4}{\ignorespaces Perancangan Basis Data\relax }}{23}% 
\contentsline {figure}{\numberline {V.5}{\ignorespaces Halaman Login\relax }}{24}% 
\contentsline {figure}{\numberline {V.6}{\ignorespaces Halaman Master Keywords\relax }}{25}% 
\contentsline {figure}{\numberline {V.7}{\ignorespaces Halaman Master Pesan\relax }}{26}% 
\contentsline {figure}{\numberline {V.8}{\ignorespaces Halaman Master Template\relax }}{27}% 
\contentsline {figure}{\numberline {V.9}{\ignorespaces Test Case Login\relax }}{27}% 
\contentsline {figure}{\numberline {V.10}{\ignorespaces Test Case Mengelola Keywords\relax }}{28}% 
\contentsline {figure}{\numberline {V.11}{\ignorespaces Test Case Mengelola Pesan\relax }}{28}% 
\contentsline {figure}{\numberline {V.12}{\ignorespaces Test Case Mengelola Templates\relax }}{29}% 
\contentsline {figure}{\numberline {V.13}{\ignorespaces Hasil dari Test Case yang sudah Dijalankan\relax }}{29}% 
\contentsline {figure}{\numberline {V.14}{\ignorespaces Hasil dari Test Case yang sudah Dijalankan\relax }}{29}% 
\contentsline {figure}{\numberline {V.15}{\ignorespaces Rumus Umum Cosine Similarity\relax }}{31}% 
\contentsline {figure}{\numberline {V.16}{\ignorespaces Hasil Pengujian Waktu Balas Sistem\relax }}{31}% 
\addvspace {10\p@ }
\contentsline {figure}{\numberline {VI.1}{\ignorespaces Hasil Pengujian Waktu Balas Sistem\relax }}{32}% 
\addvspace {10\p@ }
\addvspace {10\p@ }
\addvspace {10\p@ }
\contentsline {figure}{\numberline {B.1}{\ignorespaces Source Code\relax }}{40}% 
\addvspace {10\p@ }
\contentsline {figure}{\numberline {C.1}{\ignorespaces Curriculum Vitae\relax }}{41}% 
